<?xml version="1.0" encoding="UTF-8" standalone="no"?>
<!-- Created with Inkscape (http://www.inkscape.org/) -->

<svg
   xmlns:dc="http://purl.org/dc/elements/1.1/"
   xmlns:cc="http://creativecommons.org/ns#"
   xmlns:rdf="http://www.w3.org/1999/02/22-rdf-syntax-ns#"
   xmlns:svg="http://www.w3.org/2000/svg"
   xmlns="http://www.w3.org/2000/svg"
   xmlns:sodipodi="http://sodipodi.sourceforge.net/DTD/sodipodi-0.dtd"
   xmlns:inkscape="http://www.inkscape.org/namespaces/inkscape"
   version="1.1"
   id="svg869"
   width="320.89886"
   height="203.86517"
   viewBox="0 0 320.89886 203.86517"
   sodipodi:docname="qwerty_card.svg"
   inkscape:version="0.92.5 (2060ec1f9f, 2020-04-08)">
  <metadata
     id="metadata875">
    <rdf:RDF>
      <cc:Work
         rdf:about="">
        <dc:format>image/svg+xml</dc:format>
        <dc:type
           rdf:resource="http://purl.org/dc/dcmitype/StillImage" />
        <dc:title></dc:title>
      </cc:Work>
    </rdf:RDF>
  </metadata>
  <defs
     id="defs873" />
  <sodipodi:namedview
     pagecolor="#ffffff"
     bordercolor="#666666"
     borderopacity="1"
     objecttolerance="10"
     gridtolerance="10"
     guidetolerance="10"
     inkscape:pageopacity="0"
     inkscape:pageshadow="2"
     inkscape:window-width="2560"
     inkscape:window-height="1018"
     id="namedview871"
     showgrid="false"
     inkscape:zoom="2.8580457"
     inkscape:cx="211.11008"
     inkscape:cy="98.79214"
     inkscape:window-x="1680"
     inkscape:window-y="26"
     inkscape:window-maximized="1"
     inkscape:current-layer="layer1">
    <inkscape:grid
       type="xygrid"
       id="grid1143" />
  </sodipodi:namedview>
  <g
     inkscape:groupmode="layer"
     id="layer1"
     inkscape:label="Background"
     style="display:inline;opacity:1"
     sodipodi:insensitive="true">
    <rect
       style="fill:#000000;fill-opacity:1;stroke:#0378a3;stroke-width:4.4031496;stroke-miterlimit:4;stroke-dasharray:none;stroke-opacity:0"
       id="rect928"
       width="320.89886"
       height="203.86517"
       x="0"
       y="0"
       ry="26.152908" />
  </g>
  <g
     inkscape:groupmode="layer"
     id="layer2"
     inkscape:label="Spacebar"
     style="display:inline;opacity:1"
     sodipodi:insensitive="true">
    <rect
       style="fill:#ffffff;fill-opacity:1;stroke:#0378a3;stroke-width:4.4031496;stroke-miterlimit:4;stroke-dasharray:none;stroke-opacity:0"
       id="rect935"
       width="145.22922"
       height="15.616791"
       x="89.257263"
       y="167.97583"
       ry="5.4232864" />
  </g>
  <g
     inkscape:groupmode="layer"
     id="layer5"
     inkscape:label="Q"
     style="display:inline"
     sodipodi:insensitive="true">
    <g
       inkscape:groupmode="layer"
       id="layer3"
       inkscape:label="Letter Background"
       style="display:inline;opacity:1">
      <g
         id="g972">
        <rect
           ry="4.205956"
           y="21.871426"
           x="17.052715"
           height="36.593464"
           width="28.432911"
           id="rect938"
           style="fill:#ffffff;fill-opacity:1;stroke:#0378a3;stroke-width:4.4031496;stroke-miterlimit:4;stroke-dasharray:none;stroke-opacity:0" />
      </g>
    </g>
    <g
       inkscape:groupmode="layer"
       id="layer4"
       inkscape:label="Half Triangle Black"
       style="display:inline;opacity:1">
      <path
         style="fill:#000000;fill-opacity:1;stroke:none;stroke-width:1px;stroke-linecap:butt;stroke-linejoin:miter;stroke-opacity:1"
         d="m 17.782535,54.5228 0.06185,-28.977802 c 0,0 0.287975,-1.064844 0.833307,-1.764115 0.607286,-0.778715 1.511436,-1.205838 2.228382,-1.204795 l 21.246265,0.03093 c 0,0 0.482692,-0.02128 0.761825,0.215138 0.258559,0.218992 0.325994,0.557343 0.07319,0.929129 -0.464806,0.68354 -19.478695,25.303895 -23.928564,31.123943 -0.181106,0.23687 -0.591759,0.326618 -0.762767,0.295109 C 17.916161,55.100347 17.782535,54.5228 17.782535,54.5228 Z"
         id="path969"
         inkscape:connector-curvature="0"
         sodipodi:nodetypes="ccsscssssc" />
    </g>
    <text
       xml:space="preserve"
       style="font-style:normal;font-variant:normal;font-weight:normal;font-stretch:normal;font-size:40px;line-height:1.25;font-family:Signika;-inkscape-font-specification:Signika;letter-spacing:-5.71999979px;word-spacing:68.08999634px;fill:#ffffff;fill-opacity:1;stroke:none"
       x="21.400894"
       y="33.895058"
       id="text989"><tspan
         sodipodi:role="line"
         id="tspan987"
         x="21.400894"
         y="33.895058"
         style="font-style:normal;font-variant:normal;font-weight:bold;font-stretch:normal;font-size:13.33333302px;line-height:0;font-family:Calibri;-inkscape-font-specification:'Calibri Bold';fill:#ffffff">Q</tspan></text>
  </g>
  <g
     style="display:inline;opacity:1"
     inkscape:label="W"
     id="g1005"
     inkscape:groupmode="layer"
     sodipodi:insensitive="true">
    <g
       style="display:inline;opacity:1"
       inkscape:label="Letter Background"
       id="g995"
       inkscape:groupmode="layer" />
    <g
       style="display:inline;opacity:1"
       inkscape:label="Half Triangle Black"
       id="g999"
       inkscape:groupmode="layer" />
    <g
       id="g1015"
       transform="translate(29)">
      <g
         id="g993"
         style="display:inline;opacity:1">
        <rect
           ry="4.205956"
           y="21.871426"
           x="17.052715"
           height="36.593464"
           width="28.432911"
           id="rect991"
           style="fill:#ffffff;fill-opacity:1;stroke:#0378a3;stroke-width:4.4031496;stroke-miterlimit:4;stroke-dasharray:none;stroke-opacity:0" />
      </g>
      <path
         style="display:inline;opacity:1;fill:#000000;fill-opacity:1;stroke:none;stroke-width:1px;stroke-linecap:butt;stroke-linejoin:miter;stroke-opacity:1"
         d="m 17.782535,54.5228 0.06185,-28.977802 c 0,0 0.287975,-1.064844 0.833307,-1.764115 0.607286,-0.778715 1.511436,-1.205838 2.228382,-1.204795 l 21.246265,0.03093 c 0,0 0.482692,-0.02128 0.761825,0.215138 0.258559,0.218992 0.325994,0.557343 0.07319,0.929129 -0.464806,0.68354 -19.478695,25.303895 -23.928564,31.123943 -0.181106,0.23687 -0.591759,0.326618 -0.762767,0.295109 C 17.916161,55.100347 17.782535,54.5228 17.782535,54.5228 Z"
         id="path997"
         inkscape:connector-curvature="0"
         sodipodi:nodetypes="ccsscssssc" />
      <text
         xml:space="preserve"
         style="font-style:normal;font-variant:normal;font-weight:normal;font-stretch:normal;font-size:40px;line-height:1.25;font-family:Signika;-inkscape-font-specification:Signika;letter-spacing:-5.71999979px;word-spacing:68.08999634px;fill:#ffffff;fill-opacity:1;stroke:none"
         x="20.658667"
         y="33.895058"
         id="text1003"><tspan
           sodipodi:role="line"
           id="tspan1001"
           x="20.658667"
           y="33.895058"
           style="font-style:normal;font-variant:normal;font-weight:bold;font-stretch:normal;font-size:13.33333302px;line-height:0;font-family:Calibri;-inkscape-font-specification:'Calibri Bold';fill:#ffffff">W</tspan></text>
    </g>
  </g>
  <g
     inkscape:groupmode="layer"
     id="g1033"
     inkscape:label="E"
     style="display:inline;opacity:1"
     sodipodi:insensitive="true">
    <g
       inkscape:groupmode="layer"
       id="g1017"
       inkscape:label="Letter Background"
       style="display:inline;opacity:1" />
    <g
       inkscape:groupmode="layer"
       id="g1019"
       inkscape:label="Half Triangle Black"
       style="display:inline;opacity:1" />
    <g
       transform="translate(58)"
       id="g1031">
      <g
         style="display:inline;opacity:1"
         id="g1023">
        <rect
           style="fill:#ffffff;fill-opacity:1;stroke:#0378a3;stroke-width:4.4031496;stroke-miterlimit:4;stroke-dasharray:none;stroke-opacity:0"
           id="rect1021"
           width="28.432911"
           height="36.593464"
           x="17.052715"
           y="21.871426"
           ry="4.205956" />
      </g>
      <path
         sodipodi:nodetypes="ccsscssssc"
         inkscape:connector-curvature="0"
         id="path1025"
         d="m 17.782535,54.5228 0.06185,-28.977802 c 0,0 0.287975,-1.064844 0.833307,-1.764115 0.607286,-0.778715 1.511436,-1.205838 2.228382,-1.204795 l 21.246265,0.03093 c 0,0 0.482692,-0.02128 0.761825,0.215138 0.258559,0.218992 0.325994,0.557343 0.07319,0.929129 -0.464806,0.68354 -19.478695,25.303895 -23.928564,31.123943 -0.181106,0.23687 -0.591759,0.326618 -0.762767,0.295109 C 17.916161,55.100347 17.782535,54.5228 17.782535,54.5228 Z"
         style="display:inline;opacity:1;fill:#000000;fill-opacity:1;stroke:none;stroke-width:1px;stroke-linecap:butt;stroke-linejoin:miter;stroke-opacity:1" />
      <text
         id="text1029"
         y="33.833206"
         x="20.287552"
         style="font-style:normal;font-variant:normal;font-weight:normal;font-stretch:normal;font-size:40px;line-height:1.25;font-family:Signika;-inkscape-font-specification:Signika;letter-spacing:-5.71999979px;word-spacing:68.08999634px;fill:#ffffff;fill-opacity:1;stroke:none"
         xml:space="preserve"><tspan
           style="font-style:normal;font-variant:normal;font-weight:bold;font-stretch:normal;font-size:13.33333302px;line-height:0;font-family:Calibri;-inkscape-font-specification:'Calibri Bold';fill:#ffffff"
           y="33.833206"
           x="20.287552"
           id="tspan1027"
           sodipodi:role="line">EE</tspan></text>
    </g>
  </g>
  <g
     style="display:inline;opacity:1"
     inkscape:label="R"
     id="g1051"
     inkscape:groupmode="layer"
     sodipodi:insensitive="true">
    <g
       style="display:inline;opacity:1"
       inkscape:label="Letter Background"
       id="g1035"
       inkscape:groupmode="layer" />
    <g
       style="display:inline;opacity:1"
       inkscape:label="Half Triangle Black"
       id="g1037"
       inkscape:groupmode="layer" />
    <g
       id="g1049"
       transform="translate(87)">
      <g
         id="g1041"
         style="display:inline;opacity:1">
        <rect
           ry="4.205956"
           y="21.871426"
           x="17.052715"
           height="36.593464"
           width="28.432911"
           id="rect1039"
           style="fill:#ffffff;fill-opacity:1;stroke:#0378a3;stroke-width:4.4031496;stroke-miterlimit:4;stroke-dasharray:none;stroke-opacity:0" />
      </g>
      <path
         style="display:inline;opacity:1;fill:#000000;fill-opacity:1;stroke:none;stroke-width:1px;stroke-linecap:butt;stroke-linejoin:miter;stroke-opacity:1"
         d="m 17.782535,54.5228 0.06185,-28.977802 c 0,0 0.287975,-1.064844 0.833307,-1.764115 0.607286,-0.778715 1.511436,-1.205838 2.228382,-1.204795 l 21.246265,0.03093 c 0,0 0.482692,-0.02128 0.761825,0.215138 0.258559,0.218992 0.325994,0.557343 0.07319,0.929129 -0.464806,0.68354 -19.478695,25.303895 -23.928564,31.123943 -0.181106,0.23687 -0.591759,0.326618 -0.762767,0.295109 C 17.916161,55.100347 17.782535,54.5228 17.782535,54.5228 Z"
         id="path1043"
         inkscape:connector-curvature="0"
         sodipodi:nodetypes="ccsscssssc" />
      <text
         xml:space="preserve"
         style="font-style:normal;font-variant:normal;font-weight:normal;font-stretch:normal;font-size:40px;line-height:1.25;font-family:Signika;-inkscape-font-specification:Signika;letter-spacing:-5.71999979px;word-spacing:68.08999634px;fill:#ffffff;fill-opacity:1;stroke:none"
         x="21.153484"
         y="33.895058"
         id="text1047"><tspan
           sodipodi:role="line"
           id="tspan1045"
           x="21.153484"
           y="33.895058"
           style="font-style:normal;font-variant:normal;font-weight:bold;font-stretch:normal;font-size:13.33333302px;line-height:0;font-family:Calibri;-inkscape-font-specification:'Calibri Bold';fill:#ffffff">R</tspan></text>
    </g>
  </g>
  <g
     inkscape:groupmode="layer"
     id="g1069"
     inkscape:label="T"
     style="display:inline;opacity:1"
     sodipodi:insensitive="true">
    <g
       inkscape:groupmode="layer"
       id="g1053"
       inkscape:label="Letter Background"
       style="display:inline;opacity:1" />
    <g
       inkscape:groupmode="layer"
       id="g1055"
       inkscape:label="Half Triangle Black"
       style="display:inline;opacity:1" />
    <g
       transform="translate(116.5)"
       id="g1067">
      <g
         style="display:inline;opacity:1"
         id="g1059">
        <rect
           style="fill:#ffffff;fill-opacity:1;stroke:#0378a3;stroke-width:4.4031496;stroke-miterlimit:4;stroke-dasharray:none;stroke-opacity:0"
           id="rect1057"
           width="28.432911"
           height="36.593464"
           x="17.052715"
           y="21.871426"
           ry="4.205956" />
      </g>
      <path
         sodipodi:nodetypes="ccsscssssc"
         inkscape:connector-curvature="0"
         id="path1061"
         d="m 17.782535,54.5228 0.06185,-28.977802 c 0,0 0.287975,-1.064844 0.833307,-1.764115 0.607286,-0.778715 1.511436,-1.205838 2.228382,-1.204795 l 21.246265,0.03093 c 0,0 0.482692,-0.02128 0.761825,0.215138 0.258559,0.218992 0.325994,0.557343 0.07319,0.929129 -0.464806,0.68354 -19.478695,25.303895 -23.928564,31.123943 -0.181106,0.23687 -0.591759,0.326618 -0.762767,0.295109 C 17.916161,55.100347 17.782535,54.5228 17.782535,54.5228 Z"
         style="display:inline;opacity:1;fill:#000000;fill-opacity:1;stroke:none;stroke-width:1px;stroke-linecap:butt;stroke-linejoin:miter;stroke-opacity:1" />
      <text
         id="text1065"
         y="33.895058"
         x="21.153484"
         style="font-style:normal;font-variant:normal;font-weight:normal;font-stretch:normal;font-size:40px;line-height:1.25;font-family:Signika;-inkscape-font-specification:Signika;letter-spacing:-5.71999979px;word-spacing:68.08999634px;fill:#ffffff;fill-opacity:1;stroke:none"
         xml:space="preserve"><tspan
           style="font-style:normal;font-variant:normal;font-weight:bold;font-stretch:normal;font-size:13.33333302px;line-height:0;font-family:Calibri;-inkscape-font-specification:'Calibri Bold';fill:#ffffff"
           y="33.895058"
           x="21.153484"
           id="tspan1063"
           sodipodi:role="line">T</tspan></text>
    </g>
  </g>
  <g
     style="display:inline;opacity:1"
     inkscape:label="Y"
     id="g1087"
     inkscape:groupmode="layer"
     sodipodi:insensitive="true">
    <g
       style="display:inline;opacity:1"
       inkscape:label="Letter Background"
       id="g1071"
       inkscape:groupmode="layer" />
    <g
       style="display:inline;opacity:1"
       inkscape:label="Half Triangle Black"
       id="g1073"
       inkscape:groupmode="layer" />
    <g
       id="g1085"
       transform="translate(146)">
      <g
         id="g1077"
         style="display:inline;opacity:1">
        <rect
           ry="4.205956"
           y="21.871426"
           x="17.052715"
           height="36.593464"
           width="28.432911"
           id="rect1075"
           style="fill:#ffffff;fill-opacity:1;stroke:#0378a3;stroke-width:4.4031496;stroke-miterlimit:4;stroke-dasharray:none;stroke-opacity:0" />
      </g>
      <path
         style="display:inline;opacity:1;fill:#000000;fill-opacity:1;stroke:none;stroke-width:1px;stroke-linecap:butt;stroke-linejoin:miter;stroke-opacity:1"
         d="m 17.782535,54.5228 0.06185,-28.977802 c 0,0 0.287975,-1.064844 0.833307,-1.764115 0.607286,-0.778715 1.511436,-1.205838 2.228382,-1.204795 l 21.246265,0.03093 c 0,0 0.482692,-0.02128 0.761825,0.215138 0.258559,0.218992 0.325994,0.557343 0.07319,0.929129 -0.464806,0.68354 -19.478695,25.303895 -23.928564,31.123943 -0.181106,0.23687 -0.591759,0.326618 -0.762767,0.295109 C 17.916161,55.100347 17.782535,54.5228 17.782535,54.5228 Z"
         id="path1079"
         inkscape:connector-curvature="0"
         sodipodi:nodetypes="ccsscssssc" />
      <text
         xml:space="preserve"
         style="font-style:normal;font-variant:normal;font-weight:normal;font-stretch:normal;font-size:40px;line-height:1.25;font-family:Signika;-inkscape-font-specification:Signika;letter-spacing:-5.71999979px;word-spacing:68.08999634px;fill:#ffffff;fill-opacity:1;stroke:none"
         x="20.628651"
         y="33.807587"
         id="text1083"><tspan
           sodipodi:role="line"
           id="tspan1081"
           x="20.628651"
           y="33.807587"
           style="font-style:normal;font-variant:normal;font-weight:bold;font-stretch:normal;font-size:13.33333302px;line-height:0;font-family:Calibri;-inkscape-font-specification:'Calibri Bold';fill:#ffffff">Y</tspan></text>
    </g>
  </g>
  <g
     inkscape:groupmode="layer"
     id="g1105"
     inkscape:label="U"
     style="display:inline;opacity:1"
     sodipodi:insensitive="true">
    <g
       inkscape:groupmode="layer"
       id="g1089"
       inkscape:label="Letter Background"
       style="display:inline;opacity:1" />
    <g
       inkscape:groupmode="layer"
       id="g1091"
       inkscape:label="Half Triangle Black"
       style="display:inline;opacity:1" />
    <g
       transform="translate(175)"
       id="g1103">
      <g
         style="display:inline;opacity:1"
         id="g1095">
        <rect
           style="fill:#ffffff;fill-opacity:1;stroke:#0378a3;stroke-width:4.4031496;stroke-miterlimit:4;stroke-dasharray:none;stroke-opacity:0"
           id="rect1093"
           width="28.432911"
           height="36.593464"
           x="17.052715"
           y="21.871426"
           ry="4.205956" />
      </g>
      <path
         sodipodi:nodetypes="ccsscssssc"
         inkscape:connector-curvature="0"
         id="path1097"
         d="m 17.782535,54.5228 0.06185,-28.977802 c 0,0 0.287975,-1.064844 0.833307,-1.764115 0.607286,-0.778715 1.511436,-1.205838 2.228382,-1.204795 l 21.246265,0.03093 c 0,0 0.482692,-0.02128 0.761825,0.215138 0.258559,0.218992 0.325994,0.557343 0.07319,0.929129 -0.464806,0.68354 -19.478695,25.303895 -23.928564,31.123943 -0.181106,0.23687 -0.591759,0.326618 -0.762767,0.295109 C 17.916161,55.100347 17.782535,54.5228 17.782535,54.5228 Z"
         style="display:inline;opacity:1;fill:#000000;fill-opacity:1;stroke:none;stroke-width:1px;stroke-linecap:butt;stroke-linejoin:miter;stroke-opacity:1" />
      <text
         id="text1101"
         y="33.807587"
         x="20.628651"
         style="font-style:normal;font-variant:normal;font-weight:normal;font-stretch:normal;font-size:40px;line-height:1.25;font-family:Signika;-inkscape-font-specification:Signika;letter-spacing:-5.71999979px;word-spacing:68.08999634px;fill:#ffffff;fill-opacity:1;stroke:none"
         xml:space="preserve"><tspan
           style="font-style:normal;font-variant:normal;font-weight:bold;font-stretch:normal;font-size:13.33333302px;line-height:0;font-family:Calibri;-inkscape-font-specification:'Calibri Bold';fill:#ffffff"
           y="33.807587"
           x="20.628651"
           id="tspan1099"
           sodipodi:role="line">U</tspan></text>
    </g>
  </g>
  <g
     style="display:inline;opacity:1"
     inkscape:label="I"
     id="g1123"
     inkscape:groupmode="layer"
     sodipodi:insensitive="true">
    <g
       style="display:inline;opacity:1"
       inkscape:label="Letter Background"
       id="g1107"
       inkscape:groupmode="layer" />
    <g
       style="display:inline;opacity:1"
       inkscape:label="Half Triangle Black"
       id="g1109"
       inkscape:groupmode="layer" />
    <g
       id="g1121"
       transform="translate(204)">
      <g
         id="g1113"
         style="display:inline;opacity:1">
        <rect
           ry="4.205956"
           y="21.871426"
           x="17.052715"
           height="36.593464"
           width="28.432911"
           id="rect1111"
           style="fill:#ffffff;fill-opacity:1;stroke:#0378a3;stroke-width:4.4031496;stroke-miterlimit:4;stroke-dasharray:none;stroke-opacity:0" />
      </g>
      <path
         style="display:inline;opacity:1;fill:#000000;fill-opacity:1;stroke:none;stroke-width:1px;stroke-linecap:butt;stroke-linejoin:miter;stroke-opacity:1"
         d="m 17.782535,54.5228 0.06185,-28.977802 c 0,0 0.287975,-1.064844 0.833307,-1.764115 0.607286,-0.778715 1.511436,-1.205838 2.228382,-1.204795 l 21.246265,0.03093 c 0,0 0.482692,-0.02128 0.761825,0.215138 0.258559,0.218992 0.325994,0.557343 0.07319,0.929129 -0.464806,0.68354 -19.478695,25.303895 -23.928564,31.123943 -0.181106,0.23687 -0.591759,0.326618 -0.762767,0.295109 C 17.916161,55.100347 17.782535,54.5228 17.782535,54.5228 Z"
         id="path1115"
         inkscape:connector-curvature="0"
         sodipodi:nodetypes="ccsscssssc" />
      <text
         xml:space="preserve"
         style="font-style:normal;font-variant:normal;font-weight:normal;font-stretch:normal;font-size:40px;line-height:1.25;font-family:Signika;-inkscape-font-specification:Signika;letter-spacing:-5.71999979px;word-spacing:68.08999634px;fill:#ffffff;fill-opacity:1;stroke:none"
         x="21.853264"
         y="33.895058"
         id="text1119"><tspan
           sodipodi:role="line"
           id="tspan1117"
           x="21.853264"
           y="33.895058"
           style="font-style:normal;font-variant:normal;font-weight:bold;font-stretch:normal;font-size:13.33333302px;line-height:0;font-family:Calibri;-inkscape-font-specification:'Calibri Bold';fill:#ffffff">I</tspan></text>
    </g>
  </g>
  <g
     inkscape:groupmode="layer"
     id="g1141"
     inkscape:label="O"
     style="display:inline;opacity:1"
     sodipodi:insensitive="true">
    <g
       inkscape:groupmode="layer"
       id="g1125"
       inkscape:label="Letter Background"
       style="display:inline;opacity:1" />
    <g
       inkscape:groupmode="layer"
       id="g1127"
       inkscape:label="Half Triangle Black"
       style="display:inline;opacity:1" />
    <g
       transform="translate(233)"
       id="g1139">
      <g
         style="display:inline;opacity:1"
         id="g1131">
        <rect
           style="fill:#ffffff;fill-opacity:1;stroke:#0378a3;stroke-width:4.4031496;stroke-miterlimit:4;stroke-dasharray:none;stroke-opacity:0"
           id="rect1129"
           width="28.432911"
           height="36.593464"
           x="17.052715"
           y="21.871426"
           ry="4.205956" />
      </g>
      <path
         sodipodi:nodetypes="ccsscssssc"
         inkscape:connector-curvature="0"
         id="path1133"
         d="m 17.782535,54.5228 0.06185,-28.977802 c 0,0 0.287975,-1.064844 0.833307,-1.764115 0.607286,-0.778715 1.511436,-1.205838 2.228382,-1.204795 l 21.246265,0.03093 c 0,0 0.482692,-0.02128 0.761825,0.215138 0.258559,0.218992 0.325994,0.557343 0.07319,0.929129 -0.464806,0.68354 -19.478695,25.303895 -23.928564,31.123943 -0.181106,0.23687 -0.591759,0.326618 -0.762767,0.295109 C 17.916161,55.100347 17.782535,54.5228 17.782535,54.5228 Z"
         style="display:inline;opacity:1;fill:#000000;fill-opacity:1;stroke:none;stroke-width:1px;stroke-linecap:butt;stroke-linejoin:miter;stroke-opacity:1" />
      <text
         id="text1137"
         y="33.889748"
         x="20.216909"
         style="font-style:normal;font-variant:normal;font-weight:normal;font-stretch:normal;font-size:40px;line-height:1.25;font-family:Signika;-inkscape-font-specification:Signika;letter-spacing:-5.71999979px;word-spacing:68.08999634px;fill:#ffffff;fill-opacity:1;stroke:none"
         xml:space="preserve"><tspan
           style="font-style:normal;font-variant:normal;font-weight:bold;font-stretch:normal;font-size:13.33333302px;line-height:0;font-family:Calibri;-inkscape-font-specification:'Calibri Bold';fill:#ffffff"
           y="33.889748"
           x="20.216909"
           id="tspan1135"
           sodipodi:role="line">O</tspan></text>
    </g>
  </g>
  <g
     style="display:inline;opacity:1"
     inkscape:label="P"
     id="g1161"
     inkscape:groupmode="layer"
     sodipodi:insensitive="true">
    <g
       style="display:inline;opacity:1"
       inkscape:label="Letter Background"
       id="g1145"
       inkscape:groupmode="layer" />
    <g
       style="display:inline;opacity:1"
       inkscape:label="Half Triangle Black"
       id="g1147"
       inkscape:groupmode="layer" />
    <g
       id="g1159"
       transform="translate(262)">
      <g
         id="g1151"
         style="display:inline;opacity:1">
        <rect
           ry="4.205956"
           y="21.871426"
           x="17.052715"
           height="36.593464"
           width="28.432911"
           id="rect1149"
           style="fill:#ffffff;fill-opacity:1;stroke:#0378a3;stroke-width:4.4031496;stroke-miterlimit:4;stroke-dasharray:none;stroke-opacity:0" />
      </g>
      <path
         style="display:inline;opacity:1;fill:#000000;fill-opacity:1;stroke:none;stroke-width:1px;stroke-linecap:butt;stroke-linejoin:miter;stroke-opacity:1"
         d="m 17.782535,54.5228 0.06185,-28.977802 c 0,0 0.287975,-1.064844 0.833307,-1.764115 0.607286,-0.778715 1.511436,-1.205838 2.228382,-1.204795 l 21.246265,0.03093 c 0,0 0.482692,-0.02128 0.761825,0.215138 0.258559,0.218992 0.325994,0.557343 0.07319,0.929129 -0.464806,0.68354 -19.478695,25.303895 -23.928564,31.123943 -0.181106,0.23687 -0.591759,0.326618 -0.762767,0.295109 C 17.916161,55.100347 17.782535,54.5228 17.782535,54.5228 Z"
         id="path1153"
         inkscape:connector-curvature="0"
         sodipodi:nodetypes="ccsscssssc" />
      <text
         xml:space="preserve"
         style="font-style:normal;font-variant:normal;font-weight:normal;font-stretch:normal;font-size:40px;line-height:1.25;font-family:Signika;-inkscape-font-specification:Signika;letter-spacing:-5.71999979px;word-spacing:68.08999634px;fill:#ffffff;fill-opacity:1;stroke:none"
         x="20.566799"
         y="33.889748"
         id="text1157"><tspan
           sodipodi:role="line"
           id="tspan1155"
           x="20.566799"
           y="33.889748"
           style="font-style:normal;font-variant:normal;font-weight:bold;font-stretch:normal;font-size:13.33333302px;line-height:0;font-family:Calibri;-inkscape-font-specification:'Calibri Bold';fill:#ffffff">P</tspan></text>
    </g>
  </g>
  <g
     inkscape:groupmode="layer"
     id="g1198"
     inkscape:label="A"
     style="display:inline;opacity:1"
     sodipodi:insensitive="true">
    <g
       inkscape:groupmode="layer"
       id="g1182"
       inkscape:label="Letter Background"
       style="display:inline;opacity:1" />
    <g
       inkscape:groupmode="layer"
       id="g1184"
       inkscape:label="Half Triangle Black"
       style="display:inline;opacity:1" />
    <g
       transform="translate(14.01486,48.600284)"
       id="g1196">
      <g
         style="display:inline;opacity:1"
         id="g1188">
        <rect
           style="fill:#ffffff;fill-opacity:1;stroke:#0378a3;stroke-width:4.4031496;stroke-miterlimit:4;stroke-dasharray:none;stroke-opacity:0"
           id="rect1186"
           width="28.432911"
           height="36.593464"
           x="17.052715"
           y="21.871426"
           ry="4.205956" />
      </g>
      <path
         sodipodi:nodetypes="ccsscssssc"
         inkscape:connector-curvature="0"
         id="path1190"
         d="m 17.782535,54.5228 0.06185,-28.977802 c 0,0 0.287975,-1.064844 0.833307,-1.764115 0.607286,-0.778715 1.511436,-1.205838 2.228382,-1.204795 l 21.246265,0.03093 c 0,0 0.482692,-0.02128 0.761825,0.215138 0.258559,0.218992 0.325994,0.557343 0.07319,0.929129 -0.464806,0.68354 -19.478695,25.303895 -23.928564,31.123943 -0.181106,0.23687 -0.591759,0.326618 -0.762767,0.295109 C 17.916161,55.100347 17.782535,54.5228 17.782535,54.5228 Z"
         style="display:inline;opacity:1;fill:#000000;fill-opacity:1;stroke:none;stroke-width:1px;stroke-linecap:butt;stroke-linejoin:miter;stroke-opacity:1" />
      <text
         id="text1194"
         y="33.271225"
         x="19.948277"
         style="font-style:normal;font-variant:normal;font-weight:normal;font-stretch:normal;font-size:40px;line-height:1.25;font-family:Signika;-inkscape-font-specification:Signika;letter-spacing:-5.71999979px;word-spacing:68.08999634px;fill:#ffffff;fill-opacity:1;stroke:none"
         xml:space="preserve"><tspan
           style="font-style:normal;font-variant:normal;font-weight:bold;font-stretch:normal;font-size:13.33333302px;line-height:0;font-family:Calibri;-inkscape-font-specification:'Calibri Bold';fill:#ffffff"
           y="33.271225"
           x="19.948277"
           id="tspan1192"
           sodipodi:role="line">A</tspan></text>
    </g>
  </g>
  <g
     style="display:inline;opacity:1"
     inkscape:label="S"
     id="g1216"
     inkscape:groupmode="layer"
     sodipodi:insensitive="true">
    <g
       style="display:inline;opacity:1"
       inkscape:label="Letter Background"
       id="g1200"
       inkscape:groupmode="layer" />
    <g
       style="display:inline;opacity:1"
       inkscape:label="Half Triangle Black"
       id="g1202"
       inkscape:groupmode="layer" />
    <g
       id="g1214"
       transform="translate(43.01486,48.600284)">
      <g
         id="g1206"
         style="display:inline;opacity:1">
        <rect
           ry="4.205956"
           y="21.871426"
           x="17.052715"
           height="36.593464"
           width="28.432911"
           id="rect1204"
           style="fill:#ffffff;fill-opacity:1;stroke:#0378a3;stroke-width:4.4031496;stroke-miterlimit:4;stroke-dasharray:none;stroke-opacity:0" />
      </g>
      <path
         style="display:inline;opacity:1;fill:#000000;fill-opacity:1;stroke:none;stroke-width:1px;stroke-linecap:butt;stroke-linejoin:miter;stroke-opacity:1"
         d="m 17.782535,54.5228 0.06185,-28.977802 c 0,0 0.287975,-1.064844 0.833307,-1.764115 0.607286,-0.778715 1.511436,-1.205838 2.228382,-1.204795 l 21.246265,0.03093 c 0,0 0.482692,-0.02128 0.761825,0.215138 0.258559,0.218992 0.325994,0.557343 0.07319,0.929129 -0.464806,0.68354 -19.478695,25.303895 -23.928564,31.123943 -0.181106,0.23687 -0.591759,0.326618 -0.762767,0.295109 C 17.916161,55.100347 17.782535,54.5228 17.782535,54.5228 Z"
         id="path1208"
         inkscape:connector-curvature="0"
         sodipodi:nodetypes="ccsscssssc" />
      <text
         xml:space="preserve"
         style="font-style:normal;font-variant:normal;font-weight:normal;font-stretch:normal;font-size:40px;line-height:1.25;font-family:Signika;-inkscape-font-specification:Signika;letter-spacing:-5.71999979px;word-spacing:68.08999634px;fill:#ffffff;fill-opacity:1;stroke:none"
         x="21.061619"
         y="33.394928"
         id="text1212"><tspan
           sodipodi:role="line"
           id="tspan1210"
           x="21.061619"
           y="33.394928"
           style="font-style:normal;font-variant:normal;font-weight:bold;font-stretch:normal;font-size:13.33333302px;line-height:0;font-family:Calibri;-inkscape-font-specification:'Calibri Bold';fill:#ffffff">S</tspan></text>
    </g>
  </g>
  <g
     inkscape:groupmode="layer"
     id="g1234"
     inkscape:label="D"
     style="display:inline;opacity:1"
     sodipodi:insensitive="true">
    <g
       inkscape:groupmode="layer"
       id="g1218"
       inkscape:label="Letter Background"
       style="display:inline;opacity:1" />
    <g
       inkscape:groupmode="layer"
       id="g1220"
       inkscape:label="Half Triangle Black"
       style="display:inline;opacity:1" />
    <g
       transform="translate(72.01486,48.600284)"
       id="g1232">
      <g
         style="display:inline;opacity:1"
         id="g1224">
        <rect
           style="fill:#ffffff;fill-opacity:1;stroke:#0378a3;stroke-width:4.4031496;stroke-miterlimit:4;stroke-dasharray:none;stroke-opacity:0"
           id="rect1222"
           width="28.432911"
           height="36.593464"
           x="17.052715"
           y="21.871426"
           ry="4.205956" />
      </g>
      <path
         sodipodi:nodetypes="ccsscssssc"
         inkscape:connector-curvature="0"
         id="path1226"
         d="m 17.782535,54.5228 0.06185,-28.977802 c 0,0 0.287975,-1.064844 0.833307,-1.764115 0.607286,-0.778715 1.511436,-1.205838 2.228382,-1.204795 l 21.246265,0.03093 c 0,0 0.482692,-0.02128 0.761825,0.215138 0.258559,0.218992 0.325994,0.557343 0.07319,0.929129 -0.464806,0.68354 -19.478695,25.303895 -23.928564,31.123943 -0.181106,0.23687 -0.591759,0.326618 -0.762767,0.295109 C 17.916161,55.100347 17.782535,54.5228 17.782535,54.5228 Z"
         style="display:inline;opacity:1;fill:#000000;fill-opacity:1;stroke:none;stroke-width:1px;stroke-linecap:butt;stroke-linejoin:miter;stroke-opacity:1" />
      <text
         id="text1230"
         y="33.333076"
         x="20.752357"
         style="font-style:normal;font-variant:normal;font-weight:normal;font-stretch:normal;font-size:40px;line-height:1.25;font-family:Signika;-inkscape-font-specification:Signika;letter-spacing:-5.71999979px;word-spacing:68.08999634px;fill:#ffffff;fill-opacity:1;stroke:none"
         xml:space="preserve"><tspan
           style="font-style:normal;font-variant:normal;font-weight:bold;font-stretch:normal;font-size:13.33333302px;line-height:0;font-family:Calibri;-inkscape-font-specification:'Calibri Bold';fill:#ffffff"
           y="33.333076"
           x="20.752357"
           id="tspan1228"
           sodipodi:role="line">D</tspan></text>
    </g>
  </g>
  <g
     style="display:inline;opacity:1"
     inkscape:label="F"
     id="g1252"
     inkscape:groupmode="layer"
     sodipodi:insensitive="true">
    <g
       style="display:inline;opacity:1"
       inkscape:label="Letter Background"
       id="g1236"
       inkscape:groupmode="layer" />
    <g
       style="display:inline;opacity:1"
       inkscape:label="Half Triangle Black"
       id="g1238"
       inkscape:groupmode="layer" />
    <g
       id="g1250"
       transform="translate(101.01486,48.600284)">
      <g
         id="g1242"
         style="display:inline;opacity:1">
        <rect
           ry="4.205956"
           y="21.871426"
           x="17.052715"
           height="36.593464"
           width="28.432911"
           id="rect1240"
           style="fill:#ffffff;fill-opacity:1;stroke:#0378a3;stroke-width:4.4031496;stroke-miterlimit:4;stroke-dasharray:none;stroke-opacity:0" />
      </g>
      <path
         style="display:inline;opacity:1;fill:#000000;fill-opacity:1;stroke:none;stroke-width:1px;stroke-linecap:butt;stroke-linejoin:miter;stroke-opacity:1"
         d="m 17.782535,54.5228 0.06185,-28.977802 c 0,0 0.287975,-1.064844 0.833307,-1.764115 0.607286,-0.778715 1.511436,-1.205838 2.228382,-1.204795 l 21.246265,0.03093 c 0,0 0.482692,-0.02128 0.761825,0.215138 0.258559,0.218992 0.325994,0.557343 0.07319,0.929129 -0.464806,0.68354 -19.478695,25.303895 -23.928564,31.123943 -0.181106,0.23687 -0.591759,0.326618 -0.762767,0.295109 C 17.916161,55.100347 17.782535,54.5228 17.782535,54.5228 Z"
         id="path1244"
         inkscape:connector-curvature="0"
         sodipodi:nodetypes="ccsscssssc" />
      <text
         xml:space="preserve"
         style="font-style:normal;font-variant:normal;font-weight:normal;font-stretch:normal;font-size:40px;line-height:1.25;font-family:Signika;-inkscape-font-specification:Signika;letter-spacing:-5.71999979px;word-spacing:68.08999634px;fill:#ffffff;fill-opacity:1;stroke:none"
         x="21.432732"
         y="33.20937"
         id="text1248"><tspan
           sodipodi:role="line"
           id="tspan1246"
           x="21.432732"
           y="33.20937"
           style="font-style:normal;font-variant:normal;font-weight:bold;font-stretch:normal;font-size:13.33333302px;line-height:0;font-family:Calibri;-inkscape-font-specification:'Calibri Bold';fill:#ffffff">F</tspan></text>
    </g>
  </g>
  <g
     inkscape:groupmode="layer"
     id="g1270"
     inkscape:label="G"
     style="display:inline;opacity:1"
     sodipodi:insensitive="true">
    <g
       inkscape:groupmode="layer"
       id="g1254"
       inkscape:label="Letter Background"
       style="display:inline;opacity:1" />
    <g
       inkscape:groupmode="layer"
       id="g1256"
       inkscape:label="Half Triangle Black"
       style="display:inline;opacity:1" />
    <g
       transform="translate(130.01486,48.600284)"
       id="g1268">
      <g
         style="display:inline;opacity:1"
         id="g1260">
        <rect
           style="fill:#ffffff;fill-opacity:1;stroke:#0378a3;stroke-width:4.4031496;stroke-miterlimit:4;stroke-dasharray:none;stroke-opacity:0"
           id="rect1258"
           width="28.432911"
           height="36.593464"
           x="17.052715"
           y="21.871426"
           ry="4.205956" />
      </g>
      <path
         sodipodi:nodetypes="ccsscssssc"
         inkscape:connector-curvature="0"
         id="path1262"
         d="m 17.782535,54.5228 0.06185,-28.977802 c 0,0 0.287975,-1.064844 0.833307,-1.764115 0.607286,-0.778715 1.511436,-1.205838 2.228382,-1.204795 l 21.246265,0.03093 c 0,0 0.482692,-0.02128 0.761825,0.215138 0.258559,0.218992 0.325994,0.557343 0.07319,0.929129 -0.464806,0.68354 -19.478695,25.303895 -23.928564,31.123943 -0.181106,0.23687 -0.591759,0.326618 -0.762767,0.295109 C 17.916161,55.100347 17.782535,54.5228 17.782535,54.5228 Z"
         style="display:inline;opacity:1;fill:#000000;fill-opacity:1;stroke:none;stroke-width:1px;stroke-linecap:butt;stroke-linejoin:miter;stroke-opacity:1" />
      <text
         id="text1266"
         y="33.333073"
         x="20.690504"
         style="font-style:normal;font-variant:normal;font-weight:normal;font-stretch:normal;font-size:40px;line-height:1.25;font-family:Signika;-inkscape-font-specification:Signika;letter-spacing:-5.71999979px;word-spacing:68.08999634px;fill:#ffffff;fill-opacity:1;stroke:none"
         xml:space="preserve"><tspan
           style="font-style:normal;font-variant:normal;font-weight:bold;font-stretch:normal;font-size:13.33333302px;line-height:0;font-family:Calibri;-inkscape-font-specification:'Calibri Bold';fill:#ffffff"
           y="33.333073"
           x="20.690504"
           id="tspan1264"
           sodipodi:role="line">G</tspan></text>
    </g>
  </g>
  <g
     style="display:inline;opacity:1"
     inkscape:label="H"
     id="g1288"
     inkscape:groupmode="layer"
     sodipodi:insensitive="true">
    <g
       style="display:inline;opacity:1"
       inkscape:label="Letter Background"
       id="g1272"
       inkscape:groupmode="layer" />
    <g
       style="display:inline;opacity:1"
       inkscape:label="Half Triangle Black"
       id="g1274"
       inkscape:groupmode="layer" />
    <g
       id="g1286"
       transform="translate(159.01486,48.600284)">
      <g
         id="g1278"
         style="display:inline;opacity:1">
        <rect
           ry="4.205956"
           y="21.871426"
           x="17.052715"
           height="36.593464"
           width="28.432911"
           id="rect1276"
           style="fill:#ffffff;fill-opacity:1;stroke:#0378a3;stroke-width:4.4031496;stroke-miterlimit:4;stroke-dasharray:none;stroke-opacity:0" />
      </g>
      <path
         style="display:inline;opacity:1;fill:#000000;fill-opacity:1;stroke:none;stroke-width:1px;stroke-linecap:butt;stroke-linejoin:miter;stroke-opacity:1"
         d="m 17.782535,54.5228 0.06185,-28.977802 c 0,0 0.287975,-1.064844 0.833307,-1.764115 0.607286,-0.778715 1.511436,-1.205838 2.228382,-1.204795 l 21.246265,0.03093 c 0,0 0.482692,-0.02128 0.761825,0.215138 0.258559,0.218992 0.325994,0.557343 0.07319,0.929129 -0.464806,0.68354 -19.478695,25.303895 -23.928564,31.123943 -0.181106,0.23687 -0.591759,0.326618 -0.762767,0.295109 C 17.916161,55.100347 17.782535,54.5228 17.782535,54.5228 Z"
         id="path1280"
         inkscape:connector-curvature="0"
         sodipodi:nodetypes="ccsscssssc" />
      <text
         xml:space="preserve"
         style="font-style:normal;font-variant:normal;font-weight:normal;font-stretch:normal;font-size:40px;line-height:1.25;font-family:Signika;-inkscape-font-specification:Signika;letter-spacing:-5.71999979px;word-spacing:68.08999634px;fill:#ffffff;fill-opacity:1;stroke:none"
         x="20.443094"
         y="33.271221"
         id="text1284"><tspan
           sodipodi:role="line"
           id="tspan1282"
           x="20.443094"
           y="33.271221"
           style="font-style:normal;font-variant:normal;font-weight:bold;font-stretch:normal;font-size:13.33333302px;line-height:0;font-family:Calibri;-inkscape-font-specification:'Calibri Bold';fill:#ffffff">H</tspan></text>
    </g>
  </g>
  <g
     inkscape:groupmode="layer"
     id="g1306"
     inkscape:label="J"
     style="display:inline;opacity:1"
     sodipodi:insensitive="true">
    <g
       inkscape:groupmode="layer"
       id="g1290"
       inkscape:label="Letter Background"
       style="display:inline;opacity:1" />
    <g
       inkscape:groupmode="layer"
       id="g1292"
       inkscape:label="Half Triangle Black"
       style="display:inline;opacity:1" />
    <g
       transform="translate(188.01486,48.600284)"
       id="g1304">
      <g
         style="display:inline;opacity:1"
         id="g1296">
        <rect
           style="fill:#ffffff;fill-opacity:1;stroke:#0378a3;stroke-width:4.4031496;stroke-miterlimit:4;stroke-dasharray:none;stroke-opacity:0"
           id="rect1294"
           width="28.432911"
           height="36.593464"
           x="17.052715"
           y="21.871426"
           ry="4.205956" />
      </g>
      <path
         sodipodi:nodetypes="ccsscssssc"
         inkscape:connector-curvature="0"
         id="path1298"
         d="m 17.782535,54.5228 0.06185,-28.977802 c 0,0 0.287975,-1.064844 0.833307,-1.764115 0.607286,-0.778715 1.511436,-1.205838 2.228382,-1.204795 l 21.246265,0.03093 c 0,0 0.482692,-0.02128 0.761825,0.215138 0.258559,0.218992 0.325994,0.557343 0.07319,0.929129 -0.464806,0.68354 -19.478695,25.303895 -23.928564,31.123943 -0.181106,0.23687 -0.591759,0.326618 -0.762767,0.295109 C 17.916161,55.100347 17.782535,54.5228 17.782535,54.5228 Z"
         style="display:inline;opacity:1;fill:#000000;fill-opacity:1;stroke:none;stroke-width:1px;stroke-linecap:butt;stroke-linejoin:miter;stroke-opacity:1" />
      <text
         id="text1302"
         y="33.271221"
         x="22.298664"
         style="font-style:normal;font-variant:normal;font-weight:normal;font-stretch:normal;font-size:40px;line-height:1.25;font-family:Signika;-inkscape-font-specification:Signika;letter-spacing:-5.71999979px;word-spacing:68.08999634px;fill:#ffffff;fill-opacity:1;stroke:none"
         xml:space="preserve"><tspan
           style="font-style:normal;font-variant:normal;font-weight:bold;font-stretch:normal;font-size:13.33333302px;line-height:0;font-family:Calibri;-inkscape-font-specification:'Calibri Bold';fill:#ffffff"
           y="33.271221"
           x="22.298664"
           id="tspan1300"
           sodipodi:role="line">J</tspan></text>
    </g>
  </g>
  <g
     style="display:inline;opacity:1"
     inkscape:label="K"
     id="g1324"
     inkscape:groupmode="layer"
     sodipodi:insensitive="true">
    <g
       style="display:inline;opacity:1"
       inkscape:label="Letter Background"
       id="g1308"
       inkscape:groupmode="layer" />
    <g
       style="display:inline;opacity:1"
       inkscape:label="Half Triangle Black"
       id="g1310"
       inkscape:groupmode="layer" />
    <g
       id="g1322"
       transform="translate(217.01486,48.600284)">
      <g
         id="g1314"
         style="display:inline;opacity:1">
        <rect
           ry="4.205956"
           y="21.871426"
           x="17.052715"
           height="36.593464"
           width="28.432911"
           id="rect1312"
           style="fill:#ffffff;fill-opacity:1;stroke:#0378a3;stroke-width:4.4031496;stroke-miterlimit:4;stroke-dasharray:none;stroke-opacity:0" />
      </g>
      <path
         style="display:inline;opacity:1;fill:#000000;fill-opacity:1;stroke:none;stroke-width:1px;stroke-linecap:butt;stroke-linejoin:miter;stroke-opacity:1"
         d="m 17.782535,54.5228 0.06185,-28.977802 c 0,0 0.287975,-1.064844 0.833307,-1.764115 0.607286,-0.778715 1.511436,-1.205838 2.228382,-1.204795 l 21.246265,0.03093 c 0,0 0.482692,-0.02128 0.761825,0.215138 0.258559,0.218992 0.325994,0.557343 0.07319,0.929129 -0.464806,0.68354 -19.478695,25.303895 -23.928564,31.123943 -0.181106,0.23687 -0.591759,0.326618 -0.762767,0.295109 C 17.916161,55.100347 17.782535,54.5228 17.782535,54.5228 Z"
         id="path1316"
         inkscape:connector-curvature="0"
         sodipodi:nodetypes="ccsscssssc" />
      <text
         xml:space="preserve"
         style="font-style:normal;font-variant:normal;font-weight:normal;font-stretch:normal;font-size:40px;line-height:1.25;font-family:Signika;-inkscape-font-specification:Signika;letter-spacing:-5.71999979px;word-spacing:68.08999634px;fill:#ffffff;fill-opacity:1;stroke:none"
         x="21.865698"
         y="33.333073"
         id="text1320"><tspan
           sodipodi:role="line"
           id="tspan1318"
           x="21.865698"
           y="33.333073"
           style="font-style:normal;font-variant:normal;font-weight:bold;font-stretch:normal;font-size:13.33333302px;line-height:0;font-family:Calibri;-inkscape-font-specification:'Calibri Bold';fill:#ffffff">K</tspan></text>
    </g>
  </g>
  <g
     inkscape:groupmode="layer"
     id="g1342"
     inkscape:label="L"
     style="display:inline;opacity:1"
     sodipodi:insensitive="true">
    <g
       inkscape:groupmode="layer"
       id="g1326"
       inkscape:label="Letter Background"
       style="display:inline;opacity:1" />
    <g
       inkscape:groupmode="layer"
       id="g1328"
       inkscape:label="Half Triangle Black"
       style="display:inline;opacity:1" />
    <g
       transform="translate(246.01486,48.600284)"
       id="g1340">
      <g
         style="display:inline;opacity:1"
         id="g1332">
        <rect
           style="fill:#ffffff;fill-opacity:1;stroke:#0378a3;stroke-width:4.4031496;stroke-miterlimit:4;stroke-dasharray:none;stroke-opacity:0"
           id="rect1330"
           width="28.432911"
           height="36.593464"
           x="17.052715"
           y="21.871426"
           ry="4.205956" />
      </g>
      <path
         sodipodi:nodetypes="ccsscssssc"
         inkscape:connector-curvature="0"
         id="path1334"
         d="m 17.782535,54.5228 0.06185,-28.977802 c 0,0 0.287975,-1.064844 0.833307,-1.764115 0.607286,-0.778715 1.511436,-1.205838 2.228382,-1.204795 l 21.246265,0.03093 c 0,0 0.482692,-0.02128 0.761825,0.215138 0.258559,0.218992 0.325994,0.557343 0.07319,0.929129 -0.464806,0.68354 -19.478695,25.303895 -23.928564,31.123943 -0.181106,0.23687 -0.591759,0.326618 -0.762767,0.295109 C 17.916161,55.100347 17.782535,54.5228 17.782535,54.5228 Z"
         style="display:inline;opacity:1;fill:#000000;fill-opacity:1;stroke:none;stroke-width:1px;stroke-linecap:butt;stroke-linejoin:miter;stroke-opacity:1" />
      <text
         id="text1338"
         y="33.333073"
         x="21.865698"
         style="font-style:normal;font-variant:normal;font-weight:normal;font-stretch:normal;font-size:40px;line-height:1.25;font-family:Signika;-inkscape-font-specification:Signika;letter-spacing:-5.71999979px;word-spacing:68.08999634px;fill:#ffffff;fill-opacity:1;stroke:none"
         xml:space="preserve"><tspan
           style="font-style:normal;font-variant:normal;font-weight:bold;font-stretch:normal;font-size:13.33333302px;line-height:0;font-family:Calibri;-inkscape-font-specification:'Calibri Bold';fill:#ffffff"
           y="33.333073"
           x="21.865698"
           id="tspan1336"
           sodipodi:role="line">L</tspan></text>
    </g>
  </g>
  <g
     style="display:inline;opacity:1"
     inkscape:label="Z"
     id="g1360"
     inkscape:groupmode="layer"
     sodipodi:insensitive="true">
    <g
       style="display:inline;opacity:1"
       inkscape:label="Letter Background"
       id="g1344"
       inkscape:groupmode="layer" />
    <g
       style="display:inline;opacity:1"
       inkscape:label="Half Triangle Black"
       id="g1346"
       inkscape:groupmode="layer" />
    <g
       id="g1358"
       transform="translate(42.947285,95.993748)">
      <g
         id="g1350"
         style="display:inline;opacity:1">
        <rect
           ry="4.205956"
           y="21.871426"
           x="17.052715"
           height="36.593464"
           width="28.432911"
           id="rect1348"
           style="fill:#ffffff;fill-opacity:1;stroke:#0378a3;stroke-width:4.4031496;stroke-miterlimit:4;stroke-dasharray:none;stroke-opacity:0" />
      </g>
      <path
         style="display:inline;opacity:1;fill:#000000;fill-opacity:1;stroke:none;stroke-width:1px;stroke-linecap:butt;stroke-linejoin:miter;stroke-opacity:1"
         d="m 17.782535,54.5228 0.06185,-28.977802 c 0,0 0.287975,-1.064844 0.833307,-1.764115 0.607286,-0.778715 1.511436,-1.205838 2.228382,-1.204795 l 21.246265,0.03093 c 0,0 0.482692,-0.02128 0.761825,0.215138 0.258559,0.218992 0.325994,0.557343 0.07319,0.929129 -0.464806,0.68354 -19.478695,25.303895 -23.928564,31.123943 -0.181106,0.23687 -0.591759,0.326618 -0.762767,0.295109 C 17.916161,55.100347 17.782535,54.5228 17.782535,54.5228 Z"
         id="path1352"
         inkscape:connector-curvature="0"
         sodipodi:nodetypes="ccsscssssc" />
      <text
         xml:space="preserve"
         style="font-style:normal;font-variant:normal;font-weight:normal;font-stretch:normal;font-size:40px;line-height:1.25;font-family:Signika;-inkscape-font-specification:Signika;letter-spacing:-5.71999979px;word-spacing:68.08999634px;fill:#ffffff;fill-opacity:1;stroke:none"
         x="20.291195"
         y="33.333073"
         id="text1356"><tspan
           sodipodi:role="line"
           id="tspan1354"
           x="20.291195"
           y="33.333073"
           style="font-style:normal;font-variant:normal;font-weight:bold;font-stretch:normal;font-size:13.33333302px;line-height:0;font-family:Calibri;-inkscape-font-specification:'Calibri Bold';fill:#ffffff">Z</tspan></text>
    </g>
  </g>
  <g
     inkscape:groupmode="layer"
     id="g1378"
     inkscape:label="X"
     style="display:inline;opacity:1"
     sodipodi:insensitive="true">
    <g
       inkscape:groupmode="layer"
       id="g1362"
       inkscape:label="Letter Background"
       style="display:inline;opacity:1" />
    <g
       inkscape:groupmode="layer"
       id="g1364"
       inkscape:label="Half Triangle Black"
       style="display:inline;opacity:1" />
    <g
       transform="translate(71.947285,95.993748)"
       id="g1376">
      <g
         style="display:inline;opacity:1"
         id="g1368">
        <rect
           style="fill:#ffffff;fill-opacity:1;stroke:#0378a3;stroke-width:4.4031496;stroke-miterlimit:4;stroke-dasharray:none;stroke-opacity:0"
           id="rect1366"
           width="28.432911"
           height="36.593464"
           x="17.052715"
           y="21.871426"
           ry="4.205956" />
      </g>
      <path
         sodipodi:nodetypes="ccsscssssc"
         inkscape:connector-curvature="0"
         id="path1370"
         d="m 17.782535,54.5228 0.06185,-28.977802 c 0,0 0.287975,-1.064844 0.833307,-1.764115 0.607286,-0.778715 1.511436,-1.205838 2.228382,-1.204795 l 21.246265,0.03093 c 0,0 0.482692,-0.02128 0.761825,0.215138 0.258559,0.218992 0.325994,0.557343 0.07319,0.929129 -0.464806,0.68354 -19.478695,25.303895 -23.928564,31.123943 -0.181106,0.23687 -0.591759,0.326618 -0.762767,0.295109 C 17.916161,55.100347 17.782535,54.5228 17.782535,54.5228 Z"
         style="display:inline;opacity:1;fill:#000000;fill-opacity:1;stroke:none;stroke-width:1px;stroke-linecap:butt;stroke-linejoin:miter;stroke-opacity:1" />
      <text
         id="text1374"
         y="33.333073"
         x="21.603281"
         style="font-style:normal;font-variant:normal;font-weight:normal;font-stretch:normal;font-size:40px;line-height:1.25;font-family:Signika;-inkscape-font-specification:Signika;letter-spacing:-5.71999979px;word-spacing:68.08999634px;fill:#ffffff;fill-opacity:1;stroke:none"
         xml:space="preserve"><tspan
           style="font-style:normal;font-variant:normal;font-weight:bold;font-stretch:normal;font-size:13.33333302px;line-height:0;font-family:Calibri;-inkscape-font-specification:'Calibri Bold';fill:#ffffff"
           y="33.333073"
           x="21.603281"
           id="tspan1372"
           sodipodi:role="line">X</tspan></text>
    </g>
  </g>
  <g
     style="display:inline;opacity:1"
     inkscape:label="C"
     id="g1396"
     inkscape:groupmode="layer"
     sodipodi:insensitive="true">
    <g
       style="display:inline;opacity:1"
       inkscape:label="Letter Background"
       id="g1380"
       inkscape:groupmode="layer" />
    <g
       style="display:inline;opacity:1"
       inkscape:label="Half Triangle Black"
       id="g1382"
       inkscape:groupmode="layer" />
    <g
       id="g1394"
       transform="translate(100.94728,95.993748)">
      <g
         id="g1386"
         style="display:inline;opacity:1">
        <rect
           ry="4.205956"
           y="21.871426"
           x="17.052715"
           height="36.593464"
           width="28.432911"
           id="rect1384"
           style="fill:#ffffff;fill-opacity:1;stroke:#0378a3;stroke-width:4.4031496;stroke-miterlimit:4;stroke-dasharray:none;stroke-opacity:0" />
      </g>
      <path
         style="display:inline;opacity:1;fill:#000000;fill-opacity:1;stroke:none;stroke-width:1px;stroke-linecap:butt;stroke-linejoin:miter;stroke-opacity:1"
         d="m 17.782535,54.5228 0.06185,-28.977802 c 0,0 0.287975,-1.064844 0.833307,-1.764115 0.607286,-0.778715 1.511436,-1.205838 2.228382,-1.204795 l 21.246265,0.03093 c 0,0 0.482692,-0.02128 0.761825,0.215138 0.258559,0.218992 0.325994,0.557343 0.07319,0.929129 -0.464806,0.68354 -19.478695,25.303895 -23.928564,31.123943 -0.181106,0.23687 -0.591759,0.326618 -0.762767,0.295109 C 17.916161,55.100347 17.782535,54.5228 17.782535,54.5228 Z"
         id="path1388"
         inkscape:connector-curvature="0"
         sodipodi:nodetypes="ccsscssssc" />
      <text
         xml:space="preserve"
         style="font-style:normal;font-variant:normal;font-weight:normal;font-stretch:normal;font-size:40px;line-height:1.25;font-family:Signika;-inkscape-font-specification:Signika;letter-spacing:-5.71999979px;word-spacing:68.08999634px;fill:#ffffff;fill-opacity:1;stroke:none"
         x="21.603281"
         y="33.333073"
         id="text1392"><tspan
           sodipodi:role="line"
           id="tspan1390"
           x="21.603281"
           y="33.333073"
           style="font-style:normal;font-variant:normal;font-weight:bold;font-stretch:normal;font-size:13.33333302px;line-height:0;font-family:Calibri;-inkscape-font-specification:'Calibri Bold';fill:#ffffff">C</tspan></text>
    </g>
  </g>
  <g
     inkscape:groupmode="layer"
     id="g1414"
     inkscape:label="V"
     style="display:inline;opacity:1"
     sodipodi:insensitive="true">
    <g
       inkscape:groupmode="layer"
       id="g1398"
       inkscape:label="Letter Background"
       style="display:inline;opacity:1" />
    <g
       inkscape:groupmode="layer"
       id="g1400"
       inkscape:label="Half Triangle Black"
       style="display:inline;opacity:1" />
    <g
       transform="translate(129.94728,95.993748)"
       id="g1412">
      <g
         style="display:inline;opacity:1"
         id="g1404">
        <rect
           style="fill:#ffffff;fill-opacity:1;stroke:#0378a3;stroke-width:4.4031496;stroke-miterlimit:4;stroke-dasharray:none;stroke-opacity:0"
           id="rect1402"
           width="28.432911"
           height="36.593464"
           x="17.052715"
           y="21.871426"
           ry="4.205956" />
      </g>
      <path
         sodipodi:nodetypes="ccsscssssc"
         inkscape:connector-curvature="0"
         id="path1406"
         d="m 17.782535,54.5228 0.06185,-28.977802 c 0,0 0.287975,-1.064844 0.833307,-1.764115 0.607286,-0.778715 1.511436,-1.205838 2.228382,-1.204795 l 21.246265,0.03093 c 0,0 0.482692,-0.02128 0.761825,0.215138 0.258559,0.218992 0.325994,0.557343 0.07319,0.929129 -0.464806,0.68354 -19.478695,25.303895 -23.928564,31.123943 -0.181106,0.23687 -0.591759,0.326618 -0.762767,0.295109 C 17.916161,55.100347 17.782535,54.5228 17.782535,54.5228 Z"
         style="display:inline;opacity:1;fill:#000000;fill-opacity:1;stroke:none;stroke-width:1px;stroke-linecap:butt;stroke-linejoin:miter;stroke-opacity:1" />
      <text
         id="text1410"
         y="33.508018"
         x="20.990974"
         style="font-style:normal;font-variant:normal;font-weight:normal;font-stretch:normal;font-size:40px;line-height:1.25;font-family:Signika;-inkscape-font-specification:Signika;letter-spacing:-5.71999979px;word-spacing:68.08999634px;fill:#ffffff;fill-opacity:1;stroke:none"
         xml:space="preserve"><tspan
           style="font-style:normal;font-variant:normal;font-weight:bold;font-stretch:normal;font-size:13.33333302px;line-height:0;font-family:Calibri;-inkscape-font-specification:'Calibri Bold';fill:#ffffff"
           y="33.508018"
           x="20.990974"
           id="tspan1408"
           sodipodi:role="line">V</tspan></text>
    </g>
  </g>
  <g
     style="display:inline;opacity:1"
     inkscape:label="B"
     id="g1432"
     inkscape:groupmode="layer"
     sodipodi:insensitive="true">
    <g
       style="display:inline;opacity:1"
       inkscape:label="Letter Background"
       id="g1416"
       inkscape:groupmode="layer" />
    <g
       style="display:inline;opacity:1"
       inkscape:label="Half Triangle Black"
       id="g1418"
       inkscape:groupmode="layer" />
    <g
       id="g1430"
       transform="translate(158.94728,95.993748)">
      <g
         id="g1422"
         style="display:inline;opacity:1">
        <rect
           ry="4.205956"
           y="21.871426"
           x="17.052715"
           height="36.593464"
           width="28.432911"
           id="rect1420"
           style="fill:#ffffff;fill-opacity:1;stroke:#0378a3;stroke-width:4.4031496;stroke-miterlimit:4;stroke-dasharray:none;stroke-opacity:0" />
      </g>
      <path
         style="display:inline;opacity:1;fill:#000000;fill-opacity:1;stroke:none;stroke-width:1px;stroke-linecap:butt;stroke-linejoin:miter;stroke-opacity:1"
         d="m 17.782535,54.5228 0.06185,-28.977802 c 0,0 0.287975,-1.064844 0.833307,-1.764115 0.607286,-0.778715 1.511436,-1.205838 2.228382,-1.204795 l 21.246265,0.03093 c 0,0 0.482692,-0.02128 0.761825,0.215138 0.258559,0.218992 0.325994,0.557343 0.07319,0.929129 -0.464806,0.68354 -19.478695,25.303895 -23.928564,31.123943 -0.181106,0.23687 -0.591759,0.326618 -0.762767,0.295109 C 17.916161,55.100347 17.782535,54.5228 17.782535,54.5228 Z"
         id="path1424"
         inkscape:connector-curvature="0"
         sodipodi:nodetypes="ccsscssssc" />
      <text
         xml:space="preserve"
         style="font-style:normal;font-variant:normal;font-weight:normal;font-stretch:normal;font-size:40px;line-height:1.25;font-family:Signika;-inkscape-font-specification:Signika;letter-spacing:-5.71999979px;word-spacing:68.08999634px;fill:#ffffff;fill-opacity:1;stroke:none"
         x="21.690754"
         y="33.158131"
         id="text1428"><tspan
           sodipodi:role="line"
           id="tspan1426"
           x="21.690754"
           y="33.158131"
           style="font-style:normal;font-variant:normal;font-weight:bold;font-stretch:normal;font-size:13.33333302px;line-height:0;font-family:Calibri;-inkscape-font-specification:'Calibri Bold';fill:#ffffff">B</tspan></text>
    </g>
  </g>
  <g
     inkscape:groupmode="layer"
     id="g1450"
     inkscape:label="N"
     style="display:inline;opacity:1"
     sodipodi:insensitive="true">
    <g
       inkscape:groupmode="layer"
       id="g1434"
       inkscape:label="Letter Background"
       style="display:inline;opacity:1" />
    <g
       inkscape:groupmode="layer"
       id="g1436"
       inkscape:label="Half Triangle Black"
       style="display:inline;opacity:1" />
    <g
       transform="translate(187.94728,95.993748)"
       id="g1448">
      <g
         style="display:inline;opacity:1"
         id="g1440">
        <rect
           style="fill:#ffffff;fill-opacity:1;stroke:#0378a3;stroke-width:4.4031496;stroke-miterlimit:4;stroke-dasharray:none;stroke-opacity:0"
           id="rect1438"
           width="28.432911"
           height="36.593464"
           x="17.052715"
           y="21.871426"
           ry="4.205956" />
      </g>
      <path
         sodipodi:nodetypes="ccsscssssc"
         inkscape:connector-curvature="0"
         id="path1442"
         d="m 17.782535,54.5228 0.06185,-28.977802 c 0,0 0.287975,-1.064844 0.833307,-1.764115 0.607286,-0.778715 1.511436,-1.205838 2.228382,-1.204795 l 21.246265,0.03093 c 0,0 0.482692,-0.02128 0.761825,0.215138 0.258559,0.218992 0.325994,0.557343 0.07319,0.929129 -0.464806,0.68354 -19.478695,25.303895 -23.928564,31.123943 -0.181106,0.23687 -0.591759,0.326618 -0.762767,0.295109 C 17.916161,55.100347 17.782535,54.5228 17.782535,54.5228 Z"
         style="display:inline;opacity:1;fill:#000000;fill-opacity:1;stroke:none;stroke-width:1px;stroke-linecap:butt;stroke-linejoin:miter;stroke-opacity:1" />
      <text
         id="text1446"
         y="33.158131"
         x="21.953171"
         style="font-style:normal;font-variant:normal;font-weight:normal;font-stretch:normal;font-size:40px;line-height:1.25;font-family:Signika;-inkscape-font-specification:Signika;letter-spacing:-5.71999979px;word-spacing:68.08999634px;fill:#ffffff;fill-opacity:1;stroke:none"
         xml:space="preserve"><tspan
           style="font-style:normal;font-variant:normal;font-weight:bold;font-stretch:normal;font-size:13.33333302px;line-height:0;font-family:Calibri;-inkscape-font-specification:'Calibri Bold';fill:#ffffff"
           y="33.158131"
           x="21.953171"
           id="tspan1444"
           sodipodi:role="line">N</tspan></text>
    </g>
  </g>
  <g
     style="display:inline;opacity:1"
     inkscape:label="M"
     id="g1468"
     inkscape:groupmode="layer"
     sodipodi:insensitive="true">
    <g
       style="display:inline;opacity:1"
       inkscape:label="Letter Background"
       id="g1452"
       inkscape:groupmode="layer" />
    <g
       style="display:inline;opacity:1"
       inkscape:label="Half Triangle Black"
       id="g1454"
       inkscape:groupmode="layer" />
    <g
       id="g1466"
       transform="translate(216.94728,95.993748)">
      <g
         id="g1458"
         style="display:inline;opacity:1">
        <rect
           ry="4.205956"
           y="21.871426"
           x="17.052715"
           height="36.593464"
           width="28.432911"
           id="rect1456"
           style="fill:#ffffff;fill-opacity:1;stroke:#0378a3;stroke-width:4.4031496;stroke-miterlimit:4;stroke-dasharray:none;stroke-opacity:0" />
      </g>
      <path
         style="display:inline;opacity:1;fill:#000000;fill-opacity:1;stroke:none;stroke-width:1px;stroke-linecap:butt;stroke-linejoin:miter;stroke-opacity:1"
         d="m 17.782535,54.5228 0.06185,-28.977802 c 0,0 0.287975,-1.064844 0.833307,-1.764115 0.607286,-0.778715 1.511436,-1.205838 2.228382,-1.204795 l 21.246265,0.03093 c 0,0 0.482692,-0.02128 0.761825,0.215138 0.258559,0.218992 0.325994,0.557343 0.07319,0.929129 -0.464806,0.68354 -19.478695,25.303895 -23.928564,31.123943 -0.181106,0.23687 -0.591759,0.326618 -0.762767,0.295109 C 17.916161,55.100347 17.782535,54.5228 17.782535,54.5228 Z"
         id="path1460"
         inkscape:connector-curvature="0"
         sodipodi:nodetypes="ccsscssssc" />
      <text
         xml:space="preserve"
         style="font-style:normal;font-variant:normal;font-weight:normal;font-stretch:normal;font-size:40px;line-height:1.25;font-family:Signika;-inkscape-font-specification:Signika;letter-spacing:-5.71999979px;word-spacing:68.08999634px;fill:#ffffff;fill-opacity:1;stroke:none"
         x="21.603281"
         y="33.158131"
         id="text1464"><tspan
           sodipodi:role="line"
           id="tspan1462"
           x="21.603281"
           y="33.158131"
           style="font-style:normal;font-variant:normal;font-weight:bold;font-stretch:normal;font-size:13.33333302px;line-height:0;font-family:Calibri;-inkscape-font-specification:'Calibri Bold';fill:#ffffff">M</tspan></text>
    </g>
  </g>
</svg>
